{"page":1,"limit":10,"explicit":false,"total":95583639,"has_more":true,"list":[{"avatar_360_url":"http:\/\/s1.dmcdn.net\/AVM\/360x360-png\/iC2.jpg","username":"darga-mtabu"},{"avatar_360_url":"http:\/\/s1.dmcdn.net\/AVM\/360x360-png\/iC2.jpg","username":"pshirish50"},{"avatar_360_url":"http:\/\/s1.dmcdn.net\/AVM\/360x360-png\/iC2.jpg","username":"abrahamrodrig7311"},{"avatar_360_url":"http:\/\/s1.dmcdn.net\/AVM\/360x360-png\/iC2.jpg","username":"sathyabhuvana"},{"avatar_360_url":"http:\/\/s1.dmcdn.net\/AVM\/360x360-png\/iC2.jpg","username":"sravya6714"},{"avatar_360_url":"http:\/\/s1.dmcdn.net\/AVM\/360x360-png\/iC2.jpg","username":"garymore373"},{"avatar_360_url":"http:\/\/s1.dmcdn.net\/AVM\/360x360-png\/iC2.jpg","username":"ssddmmbn75"},{"avatar_360_url":"http:\/\/s1.dmcdn.net\/AVM\/360x360-png\/iC2.jpg","username":"sonyshaik55555"},{"avatar_360_url":"http:\/\/s1.dmcdn.net\/AVM\/360x360-png\/iC2.jpg","username":"antipuestomarylovely97"},{"avatar_360_url":"http:\/\/s1.dmcdn.net\/AVM\/360x360-png\/iC2.jpg","username":"asunashiba23"}]}
